…
target_url <- "https://gihyo.jp/book/list"

books <- read_html(target_url) %>%
  html_nodes(".data") %>%
  map_dfr(extract_book_info)
```

``` r
books
```

    ## # A tibble: 25 × 4
    ##    title                         author              price          publish_at  
    ##    <chr>                         <chr>               <chr>          <chr>       
    ##  1 ISOマネジメントシステムが一…  "一般財団法人 日本… 定価1,980円（… 2021年10月2…
    ##  2 大きな字でわかりやすいTwitte… "リンクアップ　著"  定価1,430円（… 2021年10月2…
    ##  3 AutoCAD　パーフェクトガイド…  "芳賀百合　著"      定価3,960円（… 2021年10月2…
    ##  4 PowerPoint［最強］時短仕事術… "井上香緒里　著"    定価1,760円（… 2021年10月2…
    ##  5 オオカミ特許革命　事業と技術… "田所照洋　著"      定価2,948円（… 2021年10月2…
    ##  6 「会社は無理ゲー」な人がノビ… "堀田孝治　著"      定価1,760円（… 2021年10月2…
    ##  7 アートで魅せる数学の世界      "岡本健太郎　著"    定価2,970円（… 2021年10月2…
    ##  8 働き方のデジタルシフト—— リ…  "村上智之，村上健…  定価1,980円（… 2021年10月2…
    ##  9 WEB+DB PRESS Vol.125          ""                  定価1,628円（… 2021年10月2…
    ## 10 一気にビギナー卒業！　動画で… "サンゼ（和田光司…  定価2,970円（… 2021年10月2…
    ## # … with 15 more rows
…
  return(list(title = title, author = author, price = price, publish_at = publish_at))
}

target_url <- "https://gihyo.jp/book/list"

books <- read_html(target_url) %>%
  html_nodes(".data") %>%
  map_df(extract_book_info)
```

``` r
books
```

    ## # A tibble: 25 × 4
    ##    title                                  author                price publish_at
    ##    <chr>                                  <chr>                 <dbl> <date>    
    ##  1 ISOマネジメントシステムが一番わかる    "一般財団法人 日本品…  1980 2021-10-28
    ##  2 大きな字でわかりやすいTwitter ツイッ…  "リンクアップ"         1430 2021-10-28
    ##  3 AutoCAD　パーフェクトガイド［改訂2版］ "芳賀百合"             3960 2021-10-27
    ##  4 PowerPoint［最強］時短仕事術　もう迷…  "井上香緒里"           1760 2021-10-27
    ##  5 オオカミ特許革命　事業と技術を守る真…  "田所照洋"             2948 2021-10-27
    ##  6 「会社は無理ゲー」な人がノビノビ稼ぐ…  "堀田孝治"             1760 2021-10-25
    ##  7 アートで魅せる数学の世界               "岡本健太郎"           2970 2021-10-25
    ##  8 働き方のデジタルシフト—— リモートワー… "村上智之，村上健太…   1980 2021-10-25
    ##  9 WEB+DB PRESS Vol.125                   ""                     1628 2021-10-23
    ## 10 一気にビギナー卒業！　動画でわかるAft… "サンゼ（和田光司）"   2970 2021-10-23
    ## # … with 15 more rows
…
